^C:\USERS\ACER\DESKTOP\컴그실습5\컴그실습5\NETWORKGAME.CPP
C:\USERS\ACER\DESKTOP\컴그실습5\컴그실습5\X64\DEBUG\VC141.PDB
C:\USERS\ACER\DESKTOP\컴그실습5\컴그실습5\X64\DEBUG\VC141.IDB
C:\USERS\ACER\DESKTOP\컴그실습5\컴그실습5\X64\DEBUG\NETWORKGAME.OBJ
^C:\USERS\JANGHO\DESKTOP\NETWORKGAME브랜치 (1)\컴그실습5\CLIENT.CPP|C:\USERS\JANGHO\DESKTOP\NETWORKGAME브랜치 (1)\컴그실습5\NETWORKGAME.CPP
C:\USERS\JANGHO\DESKTOP\NETWORKGAME브랜치 (1)\컴그실습5\X64\DEBUG\VC142.PDB
C:\USERS\JANGHO\DESKTOP\NETWORKGAME브랜치 (1)\컴그실습5\X64\DEBUG\VC142.IDB
C:\USERS\JANGHO\DESKTOP\NETWORKGAME브랜치 (1)\컴그실습5\X64\DEBUG\NETWORKGAME.OBJ
C:\USERS\JANGHO\DESKTOP\NETWORKGAME브랜치 (1)\컴그실습5\X64\DEBUG\CLIENT.OBJ
^C:\USERS\JANGHO\DESKTOP\NETWORKGAME브랜치 (1)\컴그실습5\CLIENT.CPP
C:\USERS\JANGHO\DESKTOP\NETWORKGAME브랜치 (1)\컴그실습5\X64\DEBUG\VC142.PDB
^C:\USERS\JANGHO\DESKTOP\NETWORKGAME브랜치 (1)\컴그실습5\NETWORKGAME.CPP
C:\USERS\JANGHO\DESKTOP\NETWORKGAME브랜치 (1)\컴그실습5\X64\DEBUG\VC142.PDB
^C:\USERS\ESSE1\ONEDRIVE\바탕 화면\넷겜플\NETWORKGAME브랜치_11_20\컴그실습5\CLIENT.CPP|C:\USERS\ESSE1\ONEDRIVE\바탕 화면\넷겜플\NETWORKGAME브랜치_11_20\컴그실습5\NETWORKGAME.CPP
C:\USERS\ESSE1\ONEDRIVE\바탕 화면\넷겜플\NETWORKGAME브랜치_11_20\컴그실습5\X64\DEBUG\VC142.PDB
C:\USERS\ESSE1\ONEDRIVE\바탕 화면\넷겜플\NETWORKGAME브랜치_11_20\컴그실습5\X64\DEBUG\VC142.IDB
C:\USERS\ESSE1\ONEDRIVE\바탕 화면\넷겜플\NETWORKGAME브랜치_11_20\컴그실습5\X64\DEBUG\NETWORKGAME.OBJ
C:\USERS\ESSE1\ONEDRIVE\바탕 화면\넷겜플\NETWORKGAME브랜치_11_20\컴그실습5\X64\DEBUG\CLIENT.OBJ
^C:\USERS\ESSE1\ONEDRIVE\바탕 화면\넷겜플\NETWORKGAME브랜치_11_20\컴그실습5\CLIENT.CPP
C:\USERS\ESSE1\ONEDRIVE\바탕 화면\넷겜플\NETWORKGAME브랜치_11_20\컴그실습5\X64\DEBUG\VC142.PDB
^C:\USERS\ESSE1\ONEDRIVE\바탕 화면\넷겜플\NETWORKGAME브랜치_11_20\컴그실습5\NETWORKGAME.CPP
C:\USERS\ESSE1\ONEDRIVE\바탕 화면\넷겜플\NETWORKGAME브랜치_11_20\컴그실습5\X64\DEBUG\VC142.PDB
^D:\넷겜플테스트용폴더\NETWORKGAME브랜치_11_22\컴그실습5\CLIENT.CPP|D:\넷겜플테스트용폴더\NETWORKGAME브랜치_11_22\컴그실습5\NETWORKGAME.CPP
D:\넷겜플테스트용폴더\NETWORKGAME브랜치_11_22\컴그실습5\X64\DEBUG\VC141.PDB
D:\넷겜플테스트용폴더\NETWORKGAME브랜치_11_22\컴그실습5\X64\DEBUG\VC141.IDB
D:\넷겜플테스트용폴더\NETWORKGAME브랜치_11_22\컴그실습5\X64\DEBUG\NETWORKGAME.OBJ
D:\넷겜플테스트용폴더\NETWORKGAME브랜치_11_22\컴그실습5\X64\DEBUG\CLIENT.OBJ
^D:\넷겜플테스트용폴더\NETWORKGAME브랜치_11_22\컴그실습5\CLIENT.CPP
D:\넷겜플테스트용폴더\NETWORKGAME브랜치_11_22\컴그실습5\X64\DEBUG\VC141.PDB
^D:\넷겜플테스트용폴더\NETWORKGAME브랜치_11_22\컴그실습5\NETWORKGAME.CPP
D:\넷겜플테스트용폴더\NETWORKGAME브랜치_11_22\컴그실습5\X64\DEBUG\VC141.PDB
