^C:\USERS\ACER\SOURCE\REPOS\컴그실습5\컴그실습5\DEBUG\컴그실습5.OBJ
C:\USERS\ACER\SOURCE\REPOS\컴그실습5\DEBUG\컴그실습5.EXE
C:\USERS\ACER\SOURCE\REPOS\컴그실습5\DEBUG\컴그실습5.ILK
C:\USERS\ACER\SOURCE\REPOS\컴그실습5\DEBUG\컴그실습5.PDB
